('C:\\Users\\user8\\Desktop\\BlueprintBookmarkScanner\\bin\\build\\app\\app.pkg',
 {'BINARY': True,
  'DATA': True,
  'EXECUTABLE': True,
  'EXTENSION': True,
  'PYMODULE': True,
  'PYSOURCE': True,
  'PYZ': False,
  'SPLASH': True,
  'SYMLINK': False},
 [('pyi-contents-directory _internal', '', 'OPTION'),
  ('PYZ-00.pyz',
   'C:\\Users\\user8\\Desktop\\BlueprintBookmarkScanner\\bin\\build\\app\\PYZ-00.pyz',
   'PYZ'),
  ('struct',
   'C:\\Users\\user8\\Desktop\\BlueprintBookmarkScanner\\bin\\build\\app\\localpycs\\struct.pyc',
   'PYMODULE'),
  ('pyimod01_archive',
   'C:\\Users\\user8\\Desktop\\BlueprintBookmarkScanner\\bin\\build\\app\\localpycs\\pyimod01_archive.pyc',
   'PYMODULE'),
  ('pyimod02_importers',
   'C:\\Users\\user8\\Desktop\\BlueprintBookmarkScanner\\bin\\build\\app\\localpycs\\pyimod02_importers.pyc',
   'PYMODULE'),
  ('pyimod03_ctypes',
   'C:\\Users\\user8\\Desktop\\BlueprintBookmarkScanner\\bin\\build\\app\\localpycs\\pyimod03_ctypes.pyc',
   'PYMODULE'),
  ('pyimod04_pywin32',
   'C:\\Users\\user8\\Desktop\\BlueprintBookmarkScanner\\bin\\build\\app\\localpycs\\pyimod04_pywin32.pyc',
   'PYMODULE'),
  ('pyiboot01_bootstrap',
   'C:\\Users\\user8\\AppData\\Local\\Packages\\PythonSoftwareFoundation.Python.3.12_qbz5n2kfra8p0\\LocalCache\\local-packages\\Python312\\site-packages\\PyInstaller\\loader\\pyiboot01_bootstrap.py',
   'PYSOURCE'),
  ('pyi_rth_inspect',
   'C:\\Users\\user8\\AppData\\Local\\Packages\\PythonSoftwareFoundation.Python.3.12_qbz5n2kfra8p0\\LocalCache\\local-packages\\Python312\\site-packages\\PyInstaller\\hooks\\rthooks\\pyi_rth_inspect.py',
   'PYSOURCE'),
  ('pyi_rth_pkgres',
   'C:\\Users\\user8\\AppData\\Local\\Packages\\PythonSoftwareFoundation.Python.3.12_qbz5n2kfra8p0\\LocalCache\\local-packages\\Python312\\site-packages\\PyInstaller\\hooks\\rthooks\\pyi_rth_pkgres.py',
   'PYSOURCE'),
  ('pyi_rth_pkgutil',
   'C:\\Users\\user8\\AppData\\Local\\Packages\\PythonSoftwareFoundation.Python.3.12_qbz5n2kfra8p0\\LocalCache\\local-packages\\Python312\\site-packages\\PyInstaller\\hooks\\rthooks\\pyi_rth_pkgutil.py',
   'PYSOURCE'),
  ('pyi_rth__tkinter',
   'C:\\Users\\user8\\AppData\\Local\\Packages\\PythonSoftwareFoundation.Python.3.12_qbz5n2kfra8p0\\LocalCache\\local-packages\\Python312\\site-packages\\PyInstaller\\hooks\\rthooks\\pyi_rth__tkinter.py',
   'PYSOURCE'),
  ('app',
   'C:\\Users\\user8\\Desktop\\BlueprintBookmarkScanner\\bin\\app.py',
   'PYSOURCE')],
 'python312.dll',
 True,
 False,
 False,
 [],
 None,
 None,
 None)
